<?xml version="1.0" encoding="UTF-8" standalone="no"?>
<svg
   xmlns:dc="http://purl.org/dc/elements/1.1/"
   xmlns:cc="http://creativecommons.org/ns#"
   xmlns:rdf="http://www.w3.org/1999/02/22-rdf-syntax-ns#"
   xmlns:svg="http://www.w3.org/2000/svg"
   xmlns="http://www.w3.org/2000/svg"
   xmlns:xlink="http://www.w3.org/1999/xlink"
   xmlns:sodipodi="http://sodipodi.sourceforge.net/DTD/sodipodi-0.dtd"
   xmlns:inkscape="http://www.inkscape.org/namespaces/inkscape"
   width="507.39758pt"
   height="672.83972pt"
   viewBox="0 0 507.39758 672.83972"
   version="1.1"
   id="svg287"
   sodipodi:docname="dataflow.svg"
   inkscape:version="1.0.2 (e86c870879, 2021-01-15)"
   inkscape:export-filename="/home/rgarcia/urban-heat-island/dataflow.png"
   inkscape:export-xdpi="200.02135"
   inkscape:export-ydpi="200.02135">
  <metadata
     id="metadata291">
    <rdf:RDF>
      <cc:Work
         rdf:about="">
        <dc:format>image/svg+xml</dc:format>
        <dc:type
           rdf:resource="http://purl.org/dc/dcmitype/StillImage" />
        <dc:title />
      </cc:Work>
    </rdf:RDF>
  </metadata>
  <sodipodi:namedview
     pagecolor="#ffffff"
     bordercolor="#666666"
     borderopacity="1"
     objecttolerance="10"
     gridtolerance="10"
     guidetolerance="10"
     inkscape:pageopacity="0"
     inkscape:pageshadow="2"
     inkscape:window-width="1916"
     inkscape:window-height="1058"
     id="namedview289"
     showgrid="false"
     showborder="false"
     inkscape:zoom="0.84491657"
     inkscape:cx="44.736264"
     inkscape:cy="332.03252"
     inkscape:window-x="0"
     inkscape:window-y="20"
     inkscape:window-maximized="0"
     inkscape:current-layer="svg287"
     fit-margin-top="0"
     fit-margin-left="0"
     fit-margin-right="0"
     fit-margin-bottom="0"
     inkscape:document-rotation="0" />
  <defs
     id="defs88">
    <rect
       x="417.04124"
       y="425.23775"
       width="81.403789"
       height="48.359616"
       id="rect284" />
    <marker
       style="overflow:visible"
       id="marker2710"
       refX="0"
       refY="0"
       orient="auto"
       inkscape:stockid="Arrow1Lend"
       inkscape:isstock="true">
      <path
         transform="matrix(-0.8,0,0,-0.8,-10,0)"
         style="fill:#000000;fill-opacity:1;fill-rule:evenodd;stroke:#000000;stroke-width:1pt;stroke-opacity:1"
         d="M 0,0 5,-5 -12.5,0 5,5 Z"
         id="path2708" />
    </marker>
    <marker
       style="overflow:visible"
       id="marker2426"
       refX="0"
       refY="0"
       orient="auto"
       inkscape:stockid="Arrow1Lend"
       inkscape:isstock="true"
       inkscape:collect="always">
      <path
         transform="matrix(-0.8,0,0,-0.8,-10,0)"
         style="fill:#000000;fill-opacity:1;fill-rule:evenodd;stroke:#000000;stroke-width:1pt;stroke-opacity:1"
         d="M 0,0 5,-5 -12.5,0 5,5 Z"
         id="path2424" />
    </marker>
    <marker
       style="overflow:visible"
       id="marker2298"
       refX="0"
       refY="0"
       orient="auto"
       inkscape:stockid="Arrow1Lend"
       inkscape:isstock="true"
       inkscape:collect="always">
      <path
         transform="matrix(-0.8,0,0,-0.8,-10,0)"
         style="fill:#000000;fill-opacity:1;fill-rule:evenodd;stroke:#000000;stroke-width:1pt;stroke-opacity:1"
         d="M 0,0 5,-5 -12.5,0 5,5 Z"
         id="path2296" />
    </marker>
    <marker
       style="overflow:visible"
       id="marker2194"
       refX="0"
       refY="0"
       orient="auto"
       inkscape:stockid="Arrow1Lend"
       inkscape:isstock="true"
       inkscape:collect="always">
      <path
         transform="matrix(-0.8,0,0,-0.8,-10,0)"
         style="fill:#000000;fill-opacity:1;fill-rule:evenodd;stroke:#000000;stroke-width:1pt;stroke-opacity:1"
         d="M 0,0 5,-5 -12.5,0 5,5 Z"
         id="path2192" />
    </marker>
    <marker
       style="overflow:visible"
       id="marker2116"
       refX="0"
       refY="0"
       orient="auto"
       inkscape:stockid="Arrow1Lend"
       inkscape:isstock="true"
       inkscape:collect="always">
      <path
         transform="matrix(-0.8,0,0,-0.8,-10,0)"
         style="fill:#000000;fill-opacity:1;fill-rule:evenodd;stroke:#000000;stroke-width:1pt;stroke-opacity:1"
         d="M 0,0 5,-5 -12.5,0 5,5 Z"
         id="path2114" />
    </marker>
    <marker
       style="overflow:visible"
       id="marker2016"
       refX="0"
       refY="0"
       orient="auto"
       inkscape:stockid="Arrow1Lend"
       inkscape:isstock="true"
       inkscape:collect="always">
      <path
         transform="matrix(-0.8,0,0,-0.8,-10,0)"
         style="fill:#000000;fill-opacity:1;fill-rule:evenodd;stroke:#000000;stroke-width:1pt;stroke-opacity:1"
         d="M 0,0 5,-5 -12.5,0 5,5 Z"
         id="path2014" />
    </marker>
    <marker
       style="overflow:visible"
       id="marker1950"
       refX="0"
       refY="0"
       orient="auto"
       inkscape:stockid="Arrow1Lend"
       inkscape:isstock="true"
       inkscape:collect="always">
      <path
         transform="matrix(-0.8,0,0,-0.8,-10,0)"
         style="fill:#000000;fill-opacity:1;fill-rule:evenodd;stroke:#000000;stroke-width:1pt;stroke-opacity:1"
         d="M 0,0 5,-5 -12.5,0 5,5 Z"
         id="path1948" />
    </marker>
    <marker
       style="overflow:visible"
       id="marker1890"
       refX="0"
       refY="0"
       orient="auto"
       inkscape:stockid="Arrow1Lend"
       inkscape:isstock="true"
       inkscape:collect="always">
      <path
         transform="matrix(-0.8,0,0,-0.8,-10,0)"
         style="fill:#000000;fill-opacity:1;fill-rule:evenodd;stroke:#000000;stroke-width:1pt;stroke-opacity:1"
         d="M 0,0 5,-5 -12.5,0 5,5 Z"
         id="path1888" />
    </marker>
    <marker
       style="overflow:visible"
       id="marker1794"
       refX="0"
       refY="0"
       orient="auto"
       inkscape:stockid="Arrow1Lend"
       inkscape:isstock="true"
       inkscape:collect="always">
      <path
         transform="matrix(-0.8,0,0,-0.8,-10,0)"
         style="fill:#000000;fill-opacity:1;fill-rule:evenodd;stroke:#000000;stroke-width:1pt;stroke-opacity:1"
         d="M 0,0 5,-5 -12.5,0 5,5 Z"
         id="path1792" />
    </marker>
    <marker
       style="overflow:visible"
       id="marker1732"
       refX="0"
       refY="0"
       orient="auto"
       inkscape:stockid="Arrow1Lend"
       inkscape:isstock="true">
      <path
         transform="matrix(-0.8,0,0,-0.8,-10,0)"
         style="fill:#000000;fill-opacity:1;fill-rule:evenodd;stroke:#000000;stroke-width:1pt;stroke-opacity:1"
         d="M 0,0 5,-5 -12.5,0 5,5 Z"
         id="path1730" />
    </marker>
    <marker
       style="overflow:visible"
       id="marker1684"
       refX="0"
       refY="0"
       orient="auto"
       inkscape:stockid="Arrow1Lend"
       inkscape:isstock="true"
       inkscape:collect="always">
      <path
         transform="matrix(-0.8,0,0,-0.8,-10,0)"
         style="fill:#000000;fill-opacity:1;fill-rule:evenodd;stroke:#000000;stroke-width:1pt;stroke-opacity:1"
         d="M 0,0 5,-5 -12.5,0 5,5 Z"
         id="path1682" />
    </marker>
    <marker
       style="overflow:visible"
       id="marker1638"
       refX="0"
       refY="0"
       orient="auto"
       inkscape:stockid="Arrow1Lend"
       inkscape:isstock="true"
       inkscape:collect="always">
      <path
         transform="matrix(-0.8,0,0,-0.8,-10,0)"
         style="fill:#000000;fill-opacity:1;fill-rule:evenodd;stroke:#000000;stroke-width:1pt;stroke-opacity:1"
         d="M 0,0 5,-5 -12.5,0 5,5 Z"
         id="path1636" />
    </marker>
    <marker
       style="overflow:visible"
       id="Arrow1Lend"
       refX="0"
       refY="0"
       orient="auto"
       inkscape:stockid="Arrow1Lend"
       inkscape:isstock="true"
       inkscape:collect="always">
      <path
         transform="matrix(-0.8,0,0,-0.8,-10,0)"
         style="fill:#000000;fill-opacity:1;fill-rule:evenodd;stroke:#000000;stroke-width:1pt;stroke-opacity:1"
         d="M 0,0 5,-5 -12.5,0 5,5 Z"
         id="path1337" />
    </marker>
    <inkscape:perspective
       sodipodi:type="inkscape:persp3d"
       inkscape:vp_x="886.70309 : 127.36842 : 1"
       inkscape:vp_y="0 : 1000 : 0"
       inkscape:vp_z="340.25972 : 167.16639 : 1"
       inkscape:persp3d-origin="838.0453 : 54.300055 : 1"
       id="perspective1288" />
    <g
       id="g83">
      <symbol
         overflow="visible"
         id="glyph0-0">
        <path
           style="stroke:none"
           d="M 0.640625,2.265625 V -9.015625 H 7.03125 v 11.28125 z m 0.71875,-0.71875 h 4.96875 v -9.84375 h -4.96875 z m 0,0"
           id="path2" />
      </symbol>
      <symbol
         overflow="visible"
         id="glyph0-1">
        <path
           style="stroke:none"
           d="m 5.671875,-6.796875 v 1.09375 C 5.347656,-5.867188 5.007812,-5.992188 4.65625,-6.078125 4.300781,-6.160156 3.9375,-6.203125 3.5625,-6.203125 3,-6.203125 2.570312,-6.113281 2.28125,-5.9375 2,-5.769531 1.859375,-5.507812 1.859375,-5.15625 c 0,0.273438 0.097656,0.484375 0.296875,0.640625 0.207031,0.148437 0.617188,0.289063 1.234375,0.421875 L 3.78125,-4 c 0.820312,0.167969 1.40625,0.414062 1.75,0.734375 C 5.875,-2.941406 6.046875,-2.5 6.046875,-1.9375 c 0,0.65625 -0.261719,1.179688 -0.78125,1.5625 C 4.753906,0 4.050781,0.1875 3.15625,0.1875 2.78125,0.1875 2.390625,0.148438 1.984375,0.078125 1.578125,0.00390625 1.144531,-0.101562 0.6875,-0.25 v -1.1875 c 0.425781,0.21875 0.84375,0.386719 1.25,0.5 0.414062,0.105469 0.828125,0.15625 1.234375,0.15625 0.539063,0 0.957031,-0.09375 1.25,-0.28125 0.289063,-0.1875 0.4375,-0.445312 0.4375,-0.78125 0,-0.3125 -0.105469,-0.550781 -0.3125,-0.71875 C 4.335938,-2.726562 3.875,-2.890625 3.15625,-3.046875 L 2.765625,-3.140625 C 2.046875,-3.285156 1.53125,-3.515625 1.21875,-3.828125 0.90625,-4.140625 0.75,-4.566406 0.75,-5.109375 c 0,-0.65625 0.226562,-1.160156 0.6875,-1.515625 0.46875,-0.363281 1.132812,-0.546875 2,-0.546875 0.414062,0 0.8125,0.03125 1.1875,0.09375 0.375,0.0625 0.722656,0.15625 1.046875,0.28125 z m 0,0"
           id="path5" />
      </symbol>
      <symbol
         overflow="visible"
         id="glyph0-2">
        <path
           style="stroke:none"
           d="M 7.015625,-4.21875 V 0 H 5.875 v -4.1875 c 0,-0.664062 -0.132812,-1.160156 -0.390625,-1.484375 -0.261719,-0.332031 -0.648437,-0.5 -1.15625,-0.5 -0.625,0 -1.121094,0.199219 -1.484375,0.59375 -0.355469,0.398437 -0.53125,0.9375 -0.53125,1.625 V 0 H 1.15625 V -9.71875 H 2.3125 v 3.8125 c 0.28125,-0.425781 0.601562,-0.742188 0.96875,-0.953125 0.375,-0.207031 0.804688,-0.3125 1.296875,-0.3125 0.800781,0 1.40625,0.25 1.8125,0.75 0.414063,0.5 0.625,1.234375 0.625,2.203125 z m 0,0"
           id="path8" />
      </symbol>
      <symbol
         overflow="visible"
         id="glyph0-3">
        <path
           style="stroke:none"
           d="m 4.390625,-3.515625 c -0.929687,0 -1.574219,0.109375 -1.9375,0.328125 -0.355469,0.210938 -0.53125,0.570312 -0.53125,1.078125 0,0.40625 0.128906,0.730469 0.390625,0.96875 0.269531,0.242187 0.640625,0.359375 1.109375,0.359375 0.632813,0 1.144531,-0.222656 1.53125,-0.671875 0.382813,-0.457031 0.578125,-1.0625 0.578125,-1.8125 v -0.25 z M 6.671875,-4 V 0 H 5.53125 V -1.0625 C 5.269531,-0.632812 4.941406,-0.316406 4.546875,-0.109375 4.160156,0.0859375 3.679688,0.1875 3.109375,0.1875 c -0.71875,0 -1.292969,-0.203125 -1.71875,-0.609375 -0.417969,-0.40625 -0.625,-0.941406 -0.625,-1.609375 0,-0.789062 0.257813,-1.382812 0.78125,-1.78125 0.53125,-0.40625 1.320313,-0.609375 2.375,-0.609375 H 5.53125 V -4.53125 C 5.53125,-5.0625 5.351562,-5.46875 5,-5.75 4.65625,-6.039062 4.171875,-6.1875 3.546875,-6.1875 3.140625,-6.1875 2.75,-6.140625 2.375,-6.046875 2,-5.953125 1.632812,-5.8125 1.28125,-5.625 v -1.046875 c 0.414062,-0.164063 0.820312,-0.289063 1.21875,-0.375 0.394531,-0.082031 0.78125,-0.125 1.15625,-0.125 1.019531,0 1.773438,0.265625 2.265625,0.796875 0.5,0.523438 0.75,1.3125 0.75,2.375 z m 0,0"
           id="path11" />
      </symbol>
      <symbol
         overflow="visible"
         id="glyph0-4">
        <path
           style="stroke:none"
           d="M 2.3125,-1.046875 V 2.65625 H 1.15625 V -7 H 2.3125 v 1.0625 c 0.25,-0.414062 0.554688,-0.722656 0.921875,-0.921875 0.363281,-0.207031 0.804687,-0.3125 1.328125,-0.3125 0.84375,0 1.53125,0.339844 2.0625,1.015625 0.53125,0.679688 0.796875,1.5625 0.796875,2.65625 0,1.105469 -0.265625,1.996094 -0.796875,2.671875 C 6.09375,-0.148438 5.40625,0.1875 4.5625,0.1875 4.039062,0.1875 3.597656,0.0859375 3.234375,-0.109375 2.867188,-0.316406 2.5625,-0.628906 2.3125,-1.046875 Z M 6.234375,-3.5 c 0,-0.84375 -0.179687,-1.503906 -0.53125,-1.984375 -0.34375,-0.476563 -0.820313,-0.71875 -1.421875,-0.71875 -0.617188,0 -1.101562,0.242187 -1.453125,0.71875 C 2.484375,-5.003906 2.3125,-4.34375 2.3125,-3.5 c 0,0.855469 0.171875,1.523438 0.515625,2 0.351563,0.480469 0.835937,0.71875 1.453125,0.71875 0.601562,0 1.078125,-0.238281 1.421875,-0.71875 0.351563,-0.476562 0.53125,-1.144531 0.53125,-2 z m 0,0"
           id="path14" />
      </symbol>
      <symbol
         overflow="visible"
         id="glyph0-5">
        <path
           style="stroke:none"
           d="m 7.1875,-3.78125 v 0.5625 H 1.90625 c 0.050781,0.792969 0.289062,1.398438 0.71875,1.8125 0.425781,0.40625 1.019531,0.609375 1.78125,0.609375 0.4375,0 0.863281,-0.050781 1.28125,-0.15625 0.414062,-0.113281 0.828125,-0.273437 1.234375,-0.484375 v 1.078125 c -0.40625,0.179687 -0.828125,0.3125 -1.265625,0.40625 -0.4375,0.09375 -0.875,0.140625 -1.3125,0.140625 -1.125,0 -2.015625,-0.320312 -2.671875,-0.96875 -0.648437,-0.65625 -0.96875,-1.539062 -0.96875,-2.65625 0,-1.144531 0.304687,-2.050781 0.921875,-2.71875 0.625,-0.675781 1.460938,-1.015625 2.515625,-1.015625 0.9375,0 1.675781,0.308594 2.21875,0.921875 0.550781,0.605469 0.828125,1.429688 0.828125,2.46875 z M 6.046875,-4.125 C 6.035156,-4.75 5.859375,-5.25 5.515625,-5.625 5.171875,-6 4.71875,-6.1875 4.15625,-6.1875 c -0.648438,0 -1.164062,0.183594 -1.546875,0.546875 C 2.222656,-5.285156 2,-4.78125 1.9375,-4.125 Z m 0,0"
           id="path17" />
      </symbol>
      <symbol
         overflow="visible"
         id="glyph0-6">
        <path
           style="stroke:none"
           d=""
           id="path20" />
      </symbol>
      <symbol
         overflow="visible"
         id="glyph0-7">
        <path
           style="stroke:none"
           d="m 4.75,-9.71875 v 0.953125 H 3.65625 c -0.417969,0 -0.710938,0.085937 -0.875,0.25 -0.15625,0.167969 -0.234375,0.46875 -0.234375,0.90625 V -7 H 4.4375 v 0.890625 H 2.546875 V 0 H 1.390625 V -6.109375 H 0.296875 V -7 h 1.09375 v -0.484375 c 0,-0.78125 0.179687,-1.347656 0.546875,-1.703125 0.363281,-0.351562 0.9375,-0.53125 1.71875,-0.53125 z m 0,0"
           id="path23" />
      </symbol>
      <symbol
         overflow="visible"
         id="glyph0-8">
        <path
           style="stroke:none"
           d="m 1.203125,-7 h 1.15625 v 7 h -1.15625 z m 0,-2.71875 h 1.15625 v 1.453125 h -1.15625 z m 0,0"
           id="path26" />
      </symbol>
      <symbol
         overflow="visible"
         id="glyph0-9">
        <path
           style="stroke:none"
           d="m 1.203125,-9.71875 h 1.15625 V 0 h -1.15625 z m 0,0"
           id="path29" />
      </symbol>
      <symbol
         overflow="visible"
         id="glyph0-10">
        <path
           style="stroke:none"
           d="M 1.15625,-9.71875 H 2.3125 v 5.734375 L 5.75,-7 H 7.21875 L 3.5,-3.71875 7.375,0 h -1.5 L 2.3125,-3.421875 V 0 H 1.15625 Z m 0,0"
           id="path32" />
      </symbol>
      <symbol
         overflow="visible"
         id="glyph0-11">
        <path
           style="stroke:none"
           d="m 5.265625,-5.921875 c -0.136719,-0.070313 -0.28125,-0.125 -0.4375,-0.15625 -0.148437,-0.039063 -0.308594,-0.0625 -0.484375,-0.0625 -0.65625,0 -1.164062,0.214844 -1.515625,0.640625 C 2.484375,-5.082031 2.3125,-4.476562 2.3125,-3.6875 V 0 H 1.15625 V -7 H 2.3125 v 1.09375 c 0.25,-0.425781 0.566406,-0.742188 0.953125,-0.953125 0.382813,-0.207031 0.851563,-0.3125 1.40625,-0.3125 0.082031,0 0.171875,0.00781 0.265625,0.015625 0.09375,0.011719 0.195312,0.027344 0.3125,0.046875 z m 0,0"
           id="path35" />
      </symbol>
      <symbol
         overflow="visible"
         id="glyph0-12">
        <path
           style="stroke:none"
           d="m 5.8125,-3.578125 c 0,-0.832031 -0.171875,-1.476563 -0.515625,-1.9375 -0.34375,-0.457031 -0.828125,-0.6875 -1.453125,-0.6875 -0.617188,0 -1.09375,0.230469 -1.4375,0.6875 -0.34375,0.460937 -0.515625,1.105469 -0.515625,1.9375 0,0.824219 0.171875,1.464844 0.515625,1.921875 0.34375,0.460938 0.820312,0.6875 1.4375,0.6875 0.625,0 1.109375,-0.226562 1.453125,-0.6875 C 5.640625,-2.113281 5.8125,-2.753906 5.8125,-3.578125 Z M 6.953125,-0.875 c 0,1.195312 -0.265625,2.082031 -0.796875,2.65625 -0.523438,0.582031 -1.328125,0.875 -2.421875,0.875 C 3.328125,2.65625 2.945312,2.625 2.59375,2.5625 2.238281,2.507812 1.890625,2.421875 1.546875,2.296875 v -1.125 c 0.34375,0.1875 0.675781,0.320313 1,0.40625 C 2.878906,1.671875 3.21875,1.71875 3.5625,1.71875 4.3125,1.71875 4.875,1.519531 5.25,1.125 5.625,0.726562 5.8125,0.132812 5.8125,-0.65625 V -1.234375 C 5.570312,-0.816406 5.265625,-0.503906 4.890625,-0.296875 4.523438,-0.0976562 4.082031,0 3.5625,0 2.707031,0 2.015625,-0.328125 1.484375,-0.984375 c -0.523437,-0.65625 -0.78125,-1.519531 -0.78125,-2.59375 0,-1.082031 0.257813,-1.953125 0.78125,-2.609375 0.53125,-0.65625 1.222656,-0.984375 2.078125,-0.984375 0.519531,0 0.960938,0.105469 1.328125,0.3125 0.375,0.210937 0.679687,0.515625 0.921875,0.921875 V -7 h 1.140625 z m 0,0"
           id="path38" />
      </symbol>
      <symbol
         overflow="visible"
         id="glyph0-13">
        <path
           style="stroke:none"
           d="M 7.015625,-4.21875 V 0 H 5.875 v -4.1875 c 0,-0.664062 -0.132812,-1.160156 -0.390625,-1.484375 -0.261719,-0.332031 -0.648437,-0.5 -1.15625,-0.5 -0.625,0 -1.121094,0.199219 -1.484375,0.59375 -0.355469,0.398437 -0.53125,0.9375 -0.53125,1.625 V 0 H 1.15625 V -7 H 2.3125 v 1.09375 c 0.28125,-0.425781 0.601562,-0.742188 0.96875,-0.953125 0.375,-0.207031 0.804688,-0.3125 1.296875,-0.3125 0.800781,0 1.40625,0.25 1.8125,0.75 0.414063,0.5 0.625,1.234375 0.625,2.203125 z m 0,0"
           id="path41" />
      </symbol>
      <symbol
         overflow="visible"
         id="glyph0-14">
        <path
           style="stroke:none"
           d="M 0.53125,-7 H 1.6875 L 3.125,-1.53125 4.5625,-7 H 5.90625 L 7.34375,-1.53125 8.78125,-7 H 9.921875 L 8.09375,0 H 6.734375 l -1.5,-5.734375 L 3.71875,0 H 2.375 Z m 0,0"
           id="path44" />
      </symbol>
      <symbol
         overflow="visible"
         id="glyph0-15">
        <path
           style="stroke:none"
           d="M 8.234375,-8.609375 V -7.28125 C 7.816406,-7.675781 7.363281,-7.96875 6.875,-8.15625 6.394531,-8.351562 5.882812,-8.453125 5.34375,-8.453125 c -1.0625,0 -1.882812,0.328125 -2.453125,0.984375 -0.5625,0.648438 -0.84375,1.585938 -0.84375,2.8125 0,1.230469 0.28125,2.171875 0.84375,2.828125 0.570313,0.648437 1.390625,0.96875 2.453125,0.96875 0.539062,0 1.050781,-0.09375 1.53125,-0.28125 0.488281,-0.195313 0.941406,-0.492187 1.359375,-0.890625 v 1.3125 c -0.4375,0.304688 -0.90625,0.53125 -1.40625,0.6875 C 6.335938,0.113281 5.820312,0.1875 5.28125,0.1875 3.863281,0.1875 2.75,-0.242188 1.9375,-1.109375 1.125,-1.972656 0.71875,-3.15625 0.71875,-4.65625 c 0,-1.5 0.40625,-2.679688 1.21875,-3.546875 C 2.75,-9.066406 3.863281,-9.5 5.28125,-9.5 c 0.550781,0 1.070312,0.078125 1.5625,0.234375 0.5,0.148437 0.960938,0.367187 1.390625,0.65625 z m 0,0"
           id="path47" />
      </symbol>
      <symbol
         overflow="visible"
         id="glyph0-16">
        <path
           style="stroke:none"
           d="m 6.84375,-9.015625 v 1.21875 c -0.480469,-0.226563 -0.933594,-0.394531 -1.359375,-0.5 -0.417969,-0.113281 -0.824219,-0.171875 -1.21875,-0.171875 -0.6875,0 -1.21875,0.136719 -1.59375,0.40625 -0.375,0.261719 -0.5625,0.636719 -0.5625,1.125 0,0.417969 0.125,0.730469 0.375,0.9375 0.25,0.210938 0.71875,0.375 1.40625,0.5 l 0.765625,0.15625 c 0.9375,0.1875 1.628906,0.507812 2.078125,0.953125 0.445313,0.449219 0.671875,1.054687 0.671875,1.8125 0,0.90625 -0.304688,1.59375 -0.90625,2.0625 C 5.894531,-0.046875 5.007812,0.1875 3.84375,0.1875 3.394531,0.1875 2.921875,0.132812 2.421875,0.03125 1.929688,-0.0703125 1.414062,-0.21875 0.875,-0.40625 v -1.3125 c 0.519531,0.292969 1.023438,0.511719 1.515625,0.65625 0.488281,0.148438 0.972656,0.21875 1.453125,0.21875 0.71875,0 1.269531,-0.140625 1.65625,-0.421875 0.394531,-0.28125 0.59375,-0.6875 0.59375,-1.21875 0,-0.457031 -0.140625,-0.8125 -0.421875,-1.0625 C 5.390625,-3.804688 4.925781,-4.003906 4.28125,-4.140625 L 3.515625,-4.28125 c -0.9375,-0.1875 -1.621094,-0.476562 -2.046875,-0.875 -0.417969,-0.40625 -0.625,-0.960938 -0.625,-1.671875 0,-0.832031 0.289062,-1.484375 0.875,-1.953125 C 2.300781,-9.257812 3.101562,-9.5 4.125,-9.5 c 0.4375,0 0.878906,0.042969 1.328125,0.125 0.457031,0.074219 0.921875,0.195312 1.390625,0.359375 z m 0,0"
           id="path50" />
      </symbol>
      <symbol
         overflow="visible"
         id="glyph0-17">
        <path
           style="stroke:none"
           d="M 3.65625,0 0.09375,-9.328125 H 1.421875 L 4.375,-1.46875 7.328125,-9.328125 h 1.3125 L 5.09375,0 Z m 0,0"
           id="path53" />
      </symbol>
      <symbol
         overflow="visible"
         id="glyph0-18">
        <path
           style="stroke:none"
           d="m 6.65625,-5.65625 c 0.28125,-0.507812 0.617188,-0.890625 1.015625,-1.140625 0.40625,-0.25 0.878906,-0.375 1.421875,-0.375 0.726562,0 1.289062,0.257813 1.6875,0.765625 0.394531,0.511719 0.59375,1.242188 0.59375,2.1875 V 0 h -1.15625 v -4.1875 c 0,-0.664062 -0.121094,-1.160156 -0.359375,-1.484375 -0.230469,-0.332031 -0.589844,-0.5 -1.078125,-0.5 -0.59375,0 -1.070312,0.199219 -1.421875,0.59375 -0.34375,0.398437 -0.515625,0.9375 -0.515625,1.625 V 0 H 5.6875 v -4.1875 c 0,-0.675781 -0.121094,-1.175781 -0.359375,-1.5 -0.230469,-0.320312 -0.59375,-0.484375 -1.09375,-0.484375 -0.585937,0 -1.054687,0.203125 -1.40625,0.609375 C 2.484375,-5.164062 2.3125,-4.628906 2.3125,-3.953125 V 0 H 1.15625 V -7 H 2.3125 v 1.09375 c 0.269531,-0.425781 0.585938,-0.742188 0.953125,-0.953125 0.363281,-0.207031 0.796875,-0.3125 1.296875,-0.3125 0.507812,0 0.941406,0.132813 1.296875,0.390625 0.363281,0.261719 0.628906,0.636719 0.796875,1.125 z m 0,0"
           id="path56" />
      </symbol>
      <symbol
         overflow="visible"
         id="glyph0-19">
        <path
           style="stroke:none"
           d="m 3.921875,-6.1875 c -0.617187,0 -1.105469,0.242188 -1.46875,0.71875 -0.355469,0.480469 -0.53125,1.136719 -0.53125,1.96875 0,0.84375 0.175781,1.507812 0.53125,1.984375 0.351563,0.480469 0.84375,0.71875 1.46875,0.71875 0.613281,0 1.097656,-0.238281 1.453125,-0.71875 C 5.726562,-2.003906 5.90625,-2.664062 5.90625,-3.5 5.90625,-4.320312 5.726562,-4.972656 5.375,-5.453125 5.019531,-5.941406 4.535156,-6.1875 3.921875,-6.1875 Z m 0,-0.984375 c 1,0 1.78125,0.328125 2.34375,0.984375 C 6.835938,-5.539062 7.125,-4.644531 7.125,-3.5 c 0,1.148438 -0.289062,2.046875 -0.859375,2.703125 -0.5625,0.65625 -1.34375,0.984375 -2.34375,0.984375 -1.011719,0 -1.804687,-0.328125 -2.375,-0.984375 -0.5625,-0.65625 -0.84375,-1.554687 -0.84375,-2.703125 0,-1.144531 0.28125,-2.039062 0.84375,-2.6875 0.570313,-0.65625 1.363281,-0.984375 2.375,-0.984375 z m 0,0"
           id="path59" />
      </symbol>
      <symbol
         overflow="visible"
         id="glyph0-20">
        <path
           style="stroke:none"
           d="M 5.8125,-5.9375 V -9.71875 H 6.953125 V 0 H 5.8125 V -1.046875 C 5.570312,-0.628906 5.265625,-0.316406 4.890625,-0.109375 4.523438,0.0859375 4.082031,0.1875 3.5625,0.1875 2.71875,0.1875 2.03125,-0.148438 1.5,-0.828125 0.96875,-1.503906 0.703125,-2.394531 0.703125,-3.5 c 0,-1.09375 0.265625,-1.976562 0.796875,-2.65625 0.53125,-0.675781 1.21875,-1.015625 2.0625,-1.015625 0.519531,0 0.960938,0.105469 1.328125,0.3125 0.375,0.199219 0.679687,0.507813 0.921875,0.921875 z M 1.890625,-3.5 c 0,0.855469 0.171875,1.523438 0.515625,2 0.351562,0.480469 0.832031,0.71875 1.4375,0.71875 0.613281,0 1.09375,-0.238281 1.4375,-0.71875 0.351562,-0.476562 0.53125,-1.144531 0.53125,-2 0,-0.84375 -0.179688,-1.503906 -0.53125,-1.984375 -0.34375,-0.476563 -0.824219,-0.71875 -1.4375,-0.71875 -0.605469,0 -1.085938,0.242187 -1.4375,0.71875 C 2.0625,-5.003906 1.890625,-4.34375 1.890625,-3.5 Z m 0,0"
           id="path62" />
      </symbol>
      <symbol
         overflow="visible"
         id="glyph0-21">
        <path
           style="stroke:none"
           d="M 0.375,-7 H 1.59375 L 3.78125,-1.125 5.96875,-7 H 7.1875 L 4.5625,0 H 3 Z m 0,0"
           id="path65" />
      </symbol>
      <symbol
         overflow="visible"
         id="glyph0-22">
        <path
           style="stroke:none"
           d="M 2.34375,-8.984375 V -7 h 2.375 v 0.890625 h -2.375 V -2.3125 c 0,0.574219 0.078125,0.945312 0.234375,1.109375 0.15625,0.15625 0.472656,0.234375 0.953125,0.234375 h 1.1875 V 0 h -1.1875 c -0.886719,0 -1.5,-0.164062 -1.84375,-0.5 -0.335938,-0.332031 -0.5,-0.9375 -0.5,-1.8125 V -6.109375 H 0.34375 V -7 H 1.1875 v -1.984375 z m 0,0"
           id="path68" />
      </symbol>
      <symbol
         overflow="visible"
         id="glyph0-23">
        <path
           style="stroke:none"
           d="M 1.09375,-2.765625 V -7 h 1.140625 v 4.1875 c 0,0.667969 0.128906,1.167969 0.390625,1.5 0.257812,0.335938 0.644531,0.5 1.15625,0.5 0.625,0 1.113281,-0.195312 1.46875,-0.59375 0.363281,-0.394531 0.546875,-0.9375 0.546875,-1.625 V -7 h 1.15625 V 0 H 5.796875 V -1.078125 C 5.515625,-0.648438 5.191406,-0.332031 4.828125,-0.125 4.460938,0.0820312 4.035156,0.1875 3.546875,0.1875 c -0.804687,0 -1.414063,-0.25 -1.828125,-0.75 -0.417969,-0.5 -0.625,-1.234375 -0.625,-2.203125 z m 0,0"
           id="path71" />
      </symbol>
      <symbol
         overflow="visible"
         id="glyph0-24">
        <path
           style="stroke:none"
           d="m 1.203125,-7 h 1.15625 V 0.125 C 2.359375,1.019531 2.1875,1.664062 1.84375,2.0625 1.507812,2.457031 0.960938,2.65625 0.203125,2.65625 h -0.4375 V 1.6875 h 0.3125 C 0.515625,1.6875 0.8125,1.582031 0.96875,1.375 1.125,1.175781 1.203125,0.757812 1.203125,0.125 Z m 0,-2.71875 h 1.15625 v 1.453125 h -1.15625 z m 0,0"
           id="path74" />
      </symbol>
      <symbol
         overflow="visible"
         id="glyph0-25">
        <path
           style="stroke:none"
           d="M 6.25,-6.734375 V -5.65625 C 5.914062,-5.832031 5.585938,-5.960938 5.265625,-6.046875 4.941406,-6.140625 4.613281,-6.1875 4.28125,-6.1875 c -0.75,0 -1.335938,0.234375 -1.75,0.703125 C 2.125,-5.015625 1.921875,-4.351562 1.921875,-3.5 c 0,0.855469 0.203125,1.523438 0.609375,2 0.414062,0.46875 1,0.703125 1.75,0.703125 0.332031,0 0.660156,-0.039063 0.984375,-0.125 0.320313,-0.09375 0.648437,-0.226563 0.984375,-0.40625 v 1.0625 C 5.925781,-0.117188 5.59375,-0.0078125 5.25,0.0625 4.90625,0.144531 4.539062,0.1875 4.15625,0.1875 3.09375,0.1875 2.25,-0.144531 1.625,-0.8125 1.007812,-1.476562 0.703125,-2.375 0.703125,-3.5 c 0,-1.132812 0.3125,-2.03125 0.9375,-2.6875 0.632813,-0.65625 1.492187,-0.984375 2.578125,-0.984375 0.351562,0 0.695312,0.039063 1.03125,0.109375 0.34375,0.074219 0.675781,0.183594 1,0.328125 z m 0,0"
           id="path77" />
      </symbol>
      <symbol
         overflow="visible"
         id="glyph0-26">
        <path
           style="stroke:none"
           d="m 6.234375,-3.5 c 0,-0.84375 -0.179687,-1.503906 -0.53125,-1.984375 -0.34375,-0.476563 -0.820313,-0.71875 -1.421875,-0.71875 -0.617188,0 -1.101562,0.242187 -1.453125,0.71875 C 2.484375,-5.003906 2.3125,-4.34375 2.3125,-3.5 c 0,0.855469 0.171875,1.523438 0.515625,2 0.351563,0.480469 0.835937,0.71875 1.453125,0.71875 0.601562,0 1.078125,-0.238281 1.421875,-0.71875 0.351563,-0.476562 0.53125,-1.144531 0.53125,-2 z M 2.3125,-5.9375 c 0.25,-0.414062 0.554688,-0.722656 0.921875,-0.921875 0.363281,-0.207031 0.804687,-0.3125 1.328125,-0.3125 0.84375,0 1.53125,0.339844 2.0625,1.015625 0.53125,0.679688 0.796875,1.5625 0.796875,2.65625 0,1.105469 -0.265625,1.996094 -0.796875,2.671875 C 6.09375,-0.148438 5.40625,0.1875 4.5625,0.1875 4.039062,0.1875 3.597656,0.0859375 3.234375,-0.109375 2.867188,-0.316406 2.5625,-0.628906 2.3125,-1.046875 V 0 H 1.15625 V -9.71875 H 2.3125 Z m 0,0"
           id="path80" />
      </symbol>
    </g>
    <image
       id="image63528"
       width="100"
       height="100"
       xlink:href="data:image/png;base64,iVBORw0KGgoAAAANSUhEUgAAAGQAAABkCAYAAABw4pVUAAAABmJLR0QA/wD/AP+gvaeTAAAB1klEQVR4nO3RTa7iMBAA4e7EJIBAnGvOzZH4yabtzGZA8/QuUIv6NrEd27JUeb/f/0REPp/PvF6vMcbIiMiIiDFGZmb23vN8Pse2bTnGyNPp9N337xuf9dfrNS3LEpn5Xe+9f8/03rOq8ng8xhgjxxj5fr/zdrtFVf24b57nX/PD4RBjjPy85XK5RFXluq7xeDymdV2/84jIfd+zqnJZlqiq/PyrqpznOasqW2vx2ddai6rKfd8zIrK1Fr33nKbpO46I7L1nay3GGLksS2zbNrXW4v8zn72fOzPzx7j3nvM8x77v2XvPdV1jCqEYBMYgMAaBMQiMQWAMAmMQGIPAGATGIDAGgTEIjEFgDAJjEBiDwBgExiAwBoExCIxBYAwCYxAYg8AYBMYgMAaBMQiMQWAMAmMQGIPAGATGIDAGgTEIjEFgDAJjEBiDwBgExiAwBoExCIxBYAwCYxAYg8AYBMYgMAaBMQiMQWAMAmMQGIPAGATGIDAGgTEIjEFgDAJjEBiDwBgExiAwBoExCIxBYAwCYxAYg8AYBMYgMAaBMQiMQWAMAmMQGIPAGATGIDAGgTEIjEFgDAJjEBiDwBgExiAwBoExCIxBYAwCYxAYg8AYBMYgMH8BAZKcrIiO77oAAAAASUVORK5CYII=" />
    <image
       id="image63531"
       width="100"
       height="100"
       xlink:href="data:image/png;base64,iVBORw0KGgoAAAANSUhEUgAAAGQAAABkCAYAAABw4pVUAAAABmJLR0QA/wD/AP+gvaeTAAABqElEQVR4nO3dS46DMBBFUSBvQj5rz7JYD0pEvkAP415B3cE9KyjJelU24KSfpunaCSOv16u6BjVyOBz26iL0k77vXRCQrOtaXYMatiyY7PvugoAkiQsCku/3W12DGrYsGFsWjC0LJl3XmRAQzyEwLgiMMwTGGQJjQmAyjuNWXYR+8n6/q2tQI8MwOENAnCEwnkNg3PbCmBAYZwhMtm0zISC2LBhbFoy7LBg/JYXxIwcYZwiMCYFxhsDYsmBsWTBZ19UFATEhMN7ChTEhMC4IjJ8BwZgQGE/qML4PgXHbC+MMgTEhMLlcLl5HADEhMM4QmNzv9+oa1PDCDkzGcXRBQEwITD6fT3UNavhOHcaWBTNUF6D/TAiMMwTGhMA4Q2BMCIxPe2Eyz3N1DWrkeDyaEBBnCIwLApPn81ldgxrusmD88RkYZwhMHo9HdQ1q2LJgbFkwPu2F8U/BYLz0CZPT6eR1BBC3vTDusmDcZcGYEBjvqcOYEBh3WTAmBMYrbTBZlqW6BjV8HwLj014YhzqMj05gPKnD2LJgcrvdqmtQI+fz2YSAOENg/gACKLAWA+caMAAAAABJRU5ErkJggg==" />
    <image
       id="image63534"
       width="100"
       height="100"
       xlink:href="data:image/png;base64,iVBORw0KGgoAAAANSUhEUgAAAGQAAABkCAYAAABw4pVUAAAABmJLR0QA/wD/AP+gvaeTAAABpklEQVR4nO3dS47CQAxF0XwekCAQ6+p1syRIMkmgh129At/BPSuwZNmuTwr65/P50wkjXdf11UHoT97vtwkByf1+r45BjXw+HysExBkCM1QHoP9sWTDp+96EgOQ4DhMCkuv1Wh2DGtm2zQoBcajDZJ7n6hjUsEJg3KnDWCEwHp3AWCEwrrJgsiyLbQsk5/O5OgY1PO2FsV3BuMqC8T4ExmUvjC0LxpYFk33fTQhIpmmqjkENZwiMCYHJuq4mBCSPx6M6BjVcZcE4Q2A87YWxQmAyjqMJAbFCYJwhMFYIjDMEJqfTqToGNWxZMD5pg7FCYHK73apjUMPTXphcLpfqGNTI6/Vytw5ihcA4Q2CsEBjfqcPk+/2aEBBnCIyPPmGsEBgTAuOyF8YKgfFOHcYKgUmS6hjUcKcOY8uCsWXBWCEwzhAY70NgnCEw/vgMTIZhMCEgtiwYWxaMqywYKwTGGQLjgx0YPwOCybZtPkcAcYbAuOyFsUJg3IfAmBAYZwiMMwTGjxxg/FMwGFsWjC0LxpYF4z4EJuM4Vseghp+SwtiyYHyFC/MLsiadaEE0vOQAAAAASUVORK5CYII=" />
  </defs>
  <rect
     style="opacity:0.988;fill:#19aeff;fill-opacity:0.105164;stroke:#0c5460;stroke-width:0.75"
     id="rect1284"
     width="458.00748"
     height="169.02359"
     x="31.225687"
     y="206.0164" />
  <rect
     style="opacity:0.988;fill:#9ade00;fill-opacity:0.105164;stroke:#6dc381;stroke-width:0.75"
     id="rect1282"
     width="457.91086"
     height="205.6414"
     x="31.32229"
     y="0.375" />
  <g
     id="g2812"
     transform="translate(102.23786,18.424631)">
    <path
       style="fill:#afecda;fill-opacity:1;fill-rule:evenodd;stroke:none"
       d="M 39.789062,11.261719 H 87.765625 V 53.59375 H 39.789062 Z m 0,0"
       id="path92" />
    <path
       style="fill:#afecda;fill-opacity:1;fill-rule:evenodd;stroke:none"
       d="m 87.761719,53.589844 c 0,3.898437 -10.738281,7.054687 -23.988281,7.054687 -13.246094,0 -23.984376,-3.15625 -23.984376,-7.054687 0,-3.894532 10.738282,-7.054688 23.984376,-7.054688 13.25,0 23.988281,3.160156 23.988281,7.054688"
       id="path94" />
    <path
       style="fill:#afecda;fill-opacity:1;fill-rule:evenodd;stroke:#000000;stroke-width:2;stroke-linecap:butt;stroke-linejoin:miter;stroke-miterlimit:10;stroke-opacity:1"
       d="m 87.76172,11.2617 c 0,3.8946 -10.73828,7.0548 -23.98828,7.0548 -13.2461,0 -23.98438,-3.1602 -23.98438,-7.0548 0,-3.8984 10.73828,-7.0586 23.98438,-7.0586 13.25,0 23.98828,3.1602 23.98828,7.0586"
       id="path96" />
    <path
       style="fill:none;stroke:#000000;stroke-width:2;stroke-linecap:butt;stroke-linejoin:miter;stroke-miterlimit:10;stroke-opacity:1"
       d="m 87.76172,11.2617 v 42.3282 c 0,3.8984 -10.73828,7.0546 -23.98828,7.0546 -13.2461,0 -23.98438,-3.1562 -23.98438,-7.0546 V 11.2617"
       id="path98" />
  </g>
  <path
     style="fill:#ffffff;fill-opacity:1;fill-rule:evenodd;stroke:#000000;stroke-width:1.23547;stroke-linecap:butt;stroke-linejoin:miter;stroke-miterlimit:10;stroke-opacity:1"
     d="m 215.29669,163.26721 h 62.0751 v 28.73195 c -12.41502,-4.78745 -18.62374,-4.78745 -31.03876,0 -12.41502,4.78979 -18.62133,4.78979 -31.03634,0 z m 0,0"
     id="path108" />
  <g
     style="fill:#000000;fill-opacity:1"
     id="g130"
     transform="matrix(0.84225351,0,0,0.84225351,122.71429,16.506159)">
    <use
       xlink:href="#glyph0-1"
       x="115.76562"
       y="191.52159"
       id="use110"
       width="100%"
       height="100%" />
    <use
       xlink:href="#glyph0-2"
       x="122.43229"
       y="191.52159"
       id="use112"
       width="100%"
       height="100%" />
    <use
       xlink:href="#glyph0-3"
       x="130.48785"
       y="191.52159"
       id="use114"
       width="100%"
       height="100%" />
    <use
       xlink:href="#glyph0-4"
       x="138.26562"
       y="191.52159"
       id="use116"
       width="100%"
       height="100%" />
    <use
       xlink:href="#glyph0-5"
       x="146.32118"
       y="191.52159"
       id="use118"
       width="100%"
       height="100%" />
    <use
       xlink:href="#glyph0-6"
       x="154.09895"
       y="191.52159"
       id="use120"
       width="100%"
       height="100%" />
    <use
       xlink:href="#glyph0-7"
       x="158.26562"
       y="191.52159"
       id="use122"
       width="100%"
       height="100%" />
    <use
       xlink:href="#glyph0-8"
       x="162.71007"
       y="191.52159"
       id="use124"
       width="100%"
       height="100%" />
    <use
       xlink:href="#glyph0-9"
       x="166.32118"
       y="191.52159"
       id="use126"
       width="100%"
       height="100%" />
    <use
       xlink:href="#glyph0-5"
       x="169.9323"
       y="191.52159"
       id="use128"
       width="100%"
       height="100%" />
  </g>
  <path
     style="fill:#ffffff;fill-opacity:1;fill-rule:evenodd;stroke:#000000;stroke-width:1.18239;stroke-linecap:butt;stroke-linejoin:miter;stroke-miterlimit:10;stroke-opacity:1"
     d="m 136.27597,101.86767 h 61.51674 v 24.68469 c -12.30427,-4.11295 -18.4564,-4.11295 -30.75837,0 -12.30427,4.11532 -18.4564,4.11532 -30.75837,0 z m 0,0"
     id="path152" />
  <g
     style="fill:#000000;fill-opacity:1"
     id="g168"
     transform="matrix(0.87100096,0,0,0.87100096,109.33036,17.939503)">
    <use
       xlink:href="#glyph0-11"
       x="39.304688"
       y="112.30284"
       id="use154"
       width="100%"
       height="100%" />
    <use
       xlink:href="#glyph0-3"
       x="44.582466"
       y="112.30284"
       id="use156"
       width="100%"
       height="100%" />
    <use
       xlink:href="#glyph0-14"
       x="52.360245"
       y="112.30284"
       id="use158"
       width="100%"
       height="100%" />
    <use
       xlink:href="#glyph0-6"
       x="62.915798"
       y="112.30284"
       id="use160"
       width="100%"
       height="100%" />
    <use
       xlink:href="#glyph0-15"
       x="67.082466"
       y="112.30284"
       id="use162"
       width="100%"
       height="100%" />
    <use
       xlink:href="#glyph0-16"
       x="75.971352"
       y="112.30284"
       id="use164"
       width="100%"
       height="100%" />
    <use
       xlink:href="#glyph0-17"
       x="84.026909"
       y="112.30284"
       id="use166"
       width="100%"
       height="100%" />
  </g>
  <path
     style="fill:#ffffff;fill-opacity:1;fill-rule:evenodd;stroke:#000000;stroke-width:2;stroke-linecap:butt;stroke-linejoin:miter;stroke-miterlimit:10;stroke-opacity:1"
     d="m 167.12068,313.10843 h 46.97266 v 47.1211 h -46.97266 z m 0,0"
     id="path170" />
  <use
     xlink:href="#image63528"
     transform="matrix(0.469736,0,0,0.471222,167.11973,313.10972)"
     id="use172"
     x="0"
     y="0"
     width="100%"
     height="100%" />
  <path
     style="fill:#ffffff;fill-opacity:1;fill-rule:evenodd;stroke:#000000;stroke-width:2;stroke-linecap:butt;stroke-linejoin:miter;stroke-miterlimit:10;stroke-opacity:1"
     d="m 222.41754,313.25687 h 45.78516 v 46.97266 h -45.78516 z m 0,0"
     id="path174" />
  <use
     xlink:href="#image63531"
     transform="matrix(0.457844,0,0,0.469736,222.41774,313.25837)"
     id="use176"
     x="0"
     y="0"
     width="100%"
     height="100%" />
  <path
     style="fill:#ffffff;fill-opacity:1;fill-rule:evenodd;stroke:#000000;stroke-width:2;stroke-linecap:butt;stroke-linejoin:miter;stroke-miterlimit:10;stroke-opacity:1"
     d="m 278.31208,312.66313 h 49.94532 v 47.5664 h -49.94532 z m 0,0"
     id="path178" />
  <use
     xlink:href="#image63534"
     transform="matrix(0.499466,0,0,0.475682,278.31035,312.66376)"
     id="use180"
     x="0"
     y="0"
     width="100%"
     height="100%" />
  <path
     style="fill:#ffffff;fill-opacity:1;fill-rule:evenodd;stroke:#000000;stroke-width:1.88869;stroke-linecap:butt;stroke-linejoin:miter;stroke-miterlimit:10;stroke-opacity:1"
     d="M 32.180073,474.32462 H 135.39339 v 64.32875 c -20.64266,-6.72886 -30.966,-6.72886 -51.608668,0 -20.642665,6.73215 -30.962002,6.73215 -51.604649,0 z"
     id="path233"
     sodipodi:nodetypes="cccccc" />
  <path
     style="fill:#ffffff;fill-opacity:1;fill-rule:evenodd;stroke:#000000;stroke-width:1.88869;stroke-linecap:butt;stroke-linejoin:miter;stroke-miterlimit:10;stroke-opacity:1"
     d="M 30.688995,396.38664 H 133.90232 c 0,0 -0.5529,37.99107 0,56.98168 -20.64266,-6.72886 -30.96601,-6.72886 -51.608676,0 -20.642664,6.73215 -30.962001,6.73215 -51.604649,0 z"
     id="path251"
     sodipodi:nodetypes="cccccc" />
  <g
     style="fill:#009100;fill-opacity:1"
     id="g212"
     transform="matrix(0.85711771,0,0,0.85711771,25.966647,66.400378)">
    <use
       xlink:href="#glyph0-18"
       x="13.15625"
       y="419.24817"
       id="use184"
       width="100%"
       height="100%"
       style="fill:#009100" />
    <use
       xlink:href="#glyph0-19"
       x="25.65625"
       y="419.24817"
       id="use186"
       width="100%"
       height="100%"
       style="fill:#009100" />
    <use
       xlink:href="#glyph0-20"
       x="33.434029"
       y="419.24817"
       id="use188"
       width="100%"
       height="100%"
       style="fill:#009100" />
    <use
       xlink:href="#glyph0-5"
       x="41.489582"
       y="419.24817"
       id="use190"
       width="100%"
       height="100%"
       style="fill:#009100" />
    <use
       xlink:href="#glyph0-9"
       x="49.267361"
       y="419.24817"
       id="use192"
       width="100%"
       height="100%"
       style="fill:#009100" />
    <use
       xlink:href="#glyph0-19"
       x="52.878471"
       y="419.24817"
       id="use194"
       width="100%"
       height="100%"
       style="fill:#009100" />
    <use
       xlink:href="#glyph0-6"
       x="60.65625"
       y="419.24817"
       id="use196"
       width="100%"
       height="100%"
       style="fill:#009100" />
    <use
       xlink:href="#glyph0-21"
       x="64.822914"
       y="419.24817"
       id="use198"
       width="100%"
       height="100%"
       style="fill:#009100" />
    <use
       xlink:href="#glyph0-5"
       x="72.322914"
       y="419.24817"
       id="use200"
       width="100%"
       height="100%"
       style="fill:#009100" />
    <use
       xlink:href="#glyph0-12"
       x="80.100693"
       y="419.24817"
       id="use202"
       width="100%"
       height="100%"
       style="fill:#009100" />
    <use
       xlink:href="#glyph0-5"
       x="88.15625"
       y="419.24817"
       id="use204"
       width="100%"
       height="100%"
       style="fill:#009100" />
    <use
       xlink:href="#glyph0-22"
       x="95.934029"
       y="419.24817"
       id="use206"
       width="100%"
       height="100%"
       style="fill:#009100" />
    <use
       xlink:href="#glyph0-3"
       x="100.93403"
       y="419.24817"
       id="use208"
       width="100%"
       height="100%"
       style="fill:#009100" />
    <use
       xlink:href="#glyph0-9"
       x="108.71181"
       y="419.24817"
       id="use210"
       width="100%"
       height="100%"
       style="fill:#009100" />
  </g>
  <path
     style="fill:#ffffff;fill-opacity:1;fill-rule:evenodd;stroke:#000000;stroke-width:1.94606;stroke-linecap:butt;stroke-linejoin:miter;stroke-miterlimit:10;stroke-opacity:1"
     d="m 172.43858,398.66942 h 150.28408 v 36.97524 H 172.43858 Z m 0,0"
     id="path214" />
  <g
     style="fill:#ff6600;fill-opacity:1"
     id="g258"
     transform="matrix(0.9730323,0,0,0.9730323,25.66654,12.831658)">
    <use
       xlink:href="#glyph0-7"
       x="161.97266"
       y="419.42004"
       id="use216"
       width="100%"
       height="100%"
       style="fill:#ff6600" />
    <use
       xlink:href="#glyph0-9"
       x="166.4171"
       y="419.42004"
       id="use218"
       width="100%"
       height="100%"
       style="fill:#ff6600" />
    <use
       xlink:href="#glyph0-23"
       x="170.02821"
       y="419.42004"
       id="use220"
       width="100%"
       height="100%"
       style="fill:#ff6600" />
    <use
       xlink:href="#glyph0-24"
       x="178.08377"
       y="419.42004"
       id="use222"
       width="100%"
       height="100%"
       style="fill:#ff6600" />
    <use
       xlink:href="#glyph0-19"
       x="181.69489"
       y="419.42004"
       id="use224"
       width="100%"
       height="100%"
       style="fill:#ff6600" />
    <use
       xlink:href="#glyph0-6"
       x="189.47266"
       y="419.42004"
       id="use226"
       width="100%"
       height="100%"
       style="fill:#ff6600" />
    <use
       xlink:href="#glyph0-20"
       x="193.63933"
       y="419.42004"
       id="use228"
       width="100%"
       height="100%"
       style="fill:#ff6600" />
    <use
       xlink:href="#glyph0-5"
       x="201.69489"
       y="419.42004"
       id="use230"
       width="100%"
       height="100%"
       style="fill:#ff6600" />
    <use
       xlink:href="#glyph0-6"
       x="209.47266"
       y="419.42004"
       id="use232"
       width="100%"
       height="100%"
       style="fill:#ff6600" />
    <use
       xlink:href="#glyph0-25"
       x="213.63933"
       y="419.42004"
       id="use234"
       width="100%"
       height="100%"
       style="fill:#ff6600" />
    <use
       xlink:href="#glyph0-3"
       x="220.58377"
       y="419.42004"
       id="use236"
       width="100%"
       height="100%"
       style="fill:#ff6600" />
    <use
       xlink:href="#glyph0-9"
       x="228.36154"
       y="419.42004"
       id="use238"
       width="100%"
       height="100%"
       style="fill:#ff6600" />
    <use
       xlink:href="#glyph0-19"
       x="231.97266"
       y="419.42004"
       id="use240"
       width="100%"
       height="100%"
       style="fill:#ff6600" />
    <use
       xlink:href="#glyph0-11"
       x="239.75043"
       y="419.42004"
       id="use242"
       width="100%"
       height="100%"
       style="fill:#ff6600" />
    <use
       xlink:href="#glyph0-6"
       x="245.02821"
       y="419.42004"
       id="use244"
       width="100%"
       height="100%"
       style="fill:#ff6600" />
    <use
       xlink:href="#glyph0-23"
       x="249.19489"
       y="419.42004"
       id="use246"
       width="100%"
       height="100%"
       style="fill:#ff6600" />
    <use
       xlink:href="#glyph0-11"
       x="257.25043"
       y="419.42004"
       id="use248"
       width="100%"
       height="100%"
       style="fill:#ff6600" />
    <use
       xlink:href="#glyph0-26"
       x="262.5282"
       y="419.42004"
       id="use250"
       width="100%"
       height="100%"
       style="fill:#ff6600" />
    <use
       xlink:href="#glyph0-3"
       x="270.58377"
       y="419.42004"
       id="use252"
       width="100%"
       height="100%"
       style="fill:#ff6600" />
    <use
       xlink:href="#glyph0-13"
       x="278.36154"
       y="419.42004"
       id="use254"
       width="100%"
       height="100%"
       style="fill:#ff6600" />
    <use
       xlink:href="#glyph0-19"
       x="286.41711"
       y="419.42004"
       id="use256"
       width="100%"
       height="100%"
       style="fill:#ff6600" />
  </g>
  <text
     xml:space="preserve"
     style="font-style:normal;font-weight:normal;font-size:11px;line-height:1.25;font-family:sans-serif;fill:#000000;fill-opacity:1;stroke:none;stroke-width:0.26678"
     x="107.50157"
     y="16.503288"
     id="text1118"><tspan
       sodipodi:role="line"
       id="tspan1116"
       x="107.50157"
       y="16.503288"
       style="font-size:11px;stroke-width:0.26678">datos.edomex.gob.mx</tspan></text>
  <text
     xml:space="preserve"
     style="font-style:normal;font-weight:normal;font-size:11px;line-height:1.25;font-family:sans-serif;fill:#000000;fill-opacity:1;stroke:none;stroke-width:0.274423"
     x="251.37752"
     y="16.198092"
     id="text1122"><tspan
       sodipodi:role="line"
       id="tspan1120"
       x="251.37752"
       y="16.198092"
       style="font-size:11px;stroke-width:0.274423">aire.cdmx.gob.mx/opendata</tspan></text>
  <path
     style="fill:#ffffff;fill-opacity:1;fill-rule:evenodd;stroke:#000000;stroke-width:1.18239;stroke-linecap:butt;stroke-linejoin:miter;stroke-miterlimit:10;stroke-opacity:1"
     d="m 283.27597,101.86767 h 61.51675 v 24.68469 c -12.30428,-4.11295 -18.45641,-4.11295 -30.75837,0 -12.30428,4.11532 -18.45641,4.11532 -30.75838,0 z m 0,0"
     id="path1222" />
  <g
     style="fill:#000000;fill-opacity:1"
     id="g1238"
     transform="matrix(0.91822328,0,0,0.91822328,253.18705,12.856182)">
    <use
       xlink:href="#glyph0-11"
       x="39.304688"
       y="112.30284"
       id="use1224"
       width="100%"
       height="100%" />
    <use
       xlink:href="#glyph0-3"
       x="44.582466"
       y="112.30284"
       id="use1226"
       width="100%"
       height="100%" />
    <use
       xlink:href="#glyph0-14"
       x="52.360245"
       y="112.30284"
       id="use1228"
       width="100%"
       height="100%" />
    <use
       xlink:href="#glyph0-6"
       x="62.915798"
       y="112.30284"
       id="use1230"
       width="100%"
       height="100%" />
    <use
       xlink:href="#glyph0-15"
       x="67.082466"
       y="112.30284"
       id="use1232"
       width="100%"
       height="100%" />
    <use
       xlink:href="#glyph0-16"
       x="75.971352"
       y="112.30284"
       id="use1234"
       width="100%"
       height="100%" />
    <use
       xlink:href="#glyph0-17"
       x="84.026909"
       y="112.30284"
       id="use1236"
       width="100%"
       height="100%" />
  </g>
  <text
     xml:space="preserve"
     style="font-style:normal;font-weight:normal;font-size:17.257px;line-height:1.25;font-family:sans-serif;fill:#000000;fill-opacity:1;stroke:none;stroke-width:0.431425"
     x="173.52849"
     y="342.51419"
     id="text1256"><tspan
       sodipodi:role="line"
       id="tspan1254"
       x="173.52849"
       y="342.51419"
       style="stroke-width:0.431425">tmp</tspan></text>
  <text
     xml:space="preserve"
     style="font-style:normal;font-weight:normal;font-size:17.257px;line-height:1.25;font-family:sans-serif;fill:#000000;fill-opacity:1;stroke:none;stroke-width:0.431425"
     x="227.52847"
     y="342.51419"
     id="text1260"><tspan
       sodipodi:role="line"
       id="tspan1258"
       x="227.52847"
       y="342.51419"
       style="stroke-width:0.431425">wsp</tspan></text>
  <text
     xml:space="preserve"
     style="font-style:normal;font-weight:normal;font-size:17.257px;line-height:1.25;font-family:sans-serif;fill:#000000;fill-opacity:1;stroke:none;stroke-width:0.431425"
     x="293.52847"
     y="342.51419"
     id="text1264"><tspan
       sodipodi:role="line"
       id="tspan1262"
       x="293.52847"
       y="342.51419"
       style="stroke-width:0.431425">hr</tspan></text>
  <text
     xml:space="preserve"
     style="font-style:normal;font-weight:normal;font-size:14.3742px;line-height:1.25;font-family:sans-serif;fill:#11694f;fill-opacity:1;stroke:none;stroke-width:0.359355"
     x="40.591251"
     y="177.27994"
     id="text1268"><tspan
       sodipodi:role="line"
       id="tspan1266"
       x="40.591251"
       y="177.27994"
       style="fill:#11694f;stroke-width:0.359355">datos registrados</tspan><tspan
       sodipodi:role="line"
       x="40.591251"
       y="195.24768"
       style="fill:#11694f;stroke-width:0.359355"
       id="tspan1270">en estaciones</tspan></text>
  <text
     xml:space="preserve"
     style="font-style:normal;font-weight:normal;font-size:14.3742px;line-height:1.25;font-family:sans-serif;fill:#106e7d;fill-opacity:1;stroke:none;stroke-width:0.359355"
     x="345.47025"
     y="330.76443"
     id="text1276"><tspan
       sodipodi:role="line"
       x="345.47025"
       y="330.76443"
       style="fill:#106e7d;stroke-width:0.359355"
       id="tspan1274">datos interpolados</tspan><tspan
       sodipodi:role="line"
       x="345.47025"
       y="348.73218"
       style="fill:#106e7d;stroke-width:0.359355"
       id="tspan1280">para cada pixel</tspan></text>
  <path
     style="fill:none;stroke:#000000;stroke-width:0.9;stroke-linecap:butt;stroke-linejoin:miter;stroke-miterlimit:4;stroke-dasharray:none;stroke-opacity:1;marker-end:url(#Arrow1Lend)"
     d="M 164.43138,78.997701 V 99.57724"
     id="path1332" />
  <path
     style="fill:none;stroke:#000000;stroke-width:0.9;stroke-linecap:butt;stroke-linejoin:miter;stroke-miterlimit:4;stroke-dasharray:none;stroke-opacity:1;marker-end:url(#marker1638)"
     d="M 314.43138,78.997701 V 99.57724"
     id="path1634" />
  <path
     style="fill:none;stroke:#000000;stroke-width:0.9;stroke-linecap:butt;stroke-linejoin:miter;stroke-miterlimit:4;stroke-dasharray:none;stroke-opacity:1;marker-end:url(#marker1684)"
     d="m 326.43813,123.59223 -49.06634,39.67498"
     id="path1680"
     sodipodi:nodetypes="cc" />
  <path
     style="fill:none;stroke:#000000;stroke-width:0.9;stroke-linecap:butt;stroke-linejoin:miter;stroke-miterlimit:4;stroke-dasharray:none;stroke-opacity:1;marker-end:url(#marker1732)"
     d="m 167.00197,126.28246 47.36087,36.98475"
     id="path1728"
     sodipodi:nodetypes="cc" />
  <path
     style="fill:none;stroke:#000000;stroke-width:0.9;stroke-linecap:butt;stroke-linejoin:miter;stroke-miterlimit:4;stroke-dasharray:none;stroke-opacity:1;marker-end:url(#marker1794)"
     d="m 245.43138,191.46761 0,30.79964"
     id="path1790"
     sodipodi:nodetypes="cc" />
  <path
     style="fill:none;stroke:#000000;stroke-width:0.75px;stroke-linecap:butt;stroke-linejoin:miter;stroke-opacity:1;marker-end:url(#marker1890)"
     d="m 245.57133,281.71665 v 29.37037"
     id="path1880"
     sodipodi:nodetypes="cc" />
  <path
     style="fill:none;stroke:#000000;stroke-width:0.75px;stroke-linecap:butt;stroke-linejoin:miter;stroke-opacity:1;marker-end:url(#marker1950)"
     d="m 245.57133,281.71665 34.1378,29.39871"
     id="path1940"
     sodipodi:nodetypes="cc" />
  <path
     style="fill:none;stroke:#000000;stroke-width:0.75px;stroke-linecap:butt;stroke-linejoin:miter;stroke-opacity:1;marker-end:url(#marker2016)"
     d="m 245.57133,281.71665 -34.1378,29.39871"
     id="path2012"
     sodipodi:nodetypes="cc" />
  <path
     style="fill:none;stroke:#000000;stroke-width:0.75px;stroke-linecap:butt;stroke-linejoin:miter;stroke-opacity:1;marker-end:url(#marker2116)"
     d="m 190.29195,359.42104 v 38.37338"
     id="path2106" />
  <path
     style="fill:none;stroke:#000000;stroke-width:0.75px;stroke-linecap:butt;stroke-linejoin:miter;stroke-opacity:1;marker-end:url(#marker2194)"
     d="m 244.29195,359.42104 v 38.37338"
     id="path2190" />
  <path
     style="fill:none;stroke:#000000;stroke-width:0.75px;stroke-linecap:butt;stroke-linejoin:miter;stroke-opacity:1;marker-end:url(#marker2298)"
     d="m 304.29195,359.42104 v 38.37338"
     id="path2294" />
  <text
     xml:space="preserve"
     style="font-style:normal;font-weight:normal;font-size:8.7215px;line-height:1.25;font-family:sans-serif;text-align:center;text-anchor:middle;fill:#666666;fill-opacity:1;stroke:none;stroke-width:0.218038"
     x="84.62825"
     y="496.72171"
     id="text2410"><tspan
       sodipodi:role="line"
       x="84.62825"
       y="496.72171"
       style="text-align:center;text-anchor:middle;fill:#666666;stroke-width:0.218038"
       id="tspan2408">shape file</tspan><tspan
       sodipodi:role="line"
       x="84.62825"
       y="507.6236"
       style="text-align:center;text-anchor:middle;fill:#666666;stroke-width:0.218038"
       id="tspan253">capas diseñadas</tspan><tspan
       sodipodi:role="line"
       x="84.62825"
       y="518.52545"
       style="text-align:center;text-anchor:middle;fill:#666666;stroke-width:0.218038"
       id="tspan2414">por investigadoras</tspan></text>
  <path
     style="fill:none;stroke:#000000;stroke-width:0.75px;stroke-linecap:butt;stroke-linejoin:miter;stroke-opacity:1;marker-end:url(#marker2426)"
     d="m 132.56659,418.62196 35.88999,0.8835"
     id="path2416" />
  <g
     id="g2822"
     transform="translate(250.73786,18.424631)">
    <path
       style="fill:#afecda;fill-opacity:1;fill-rule:evenodd;stroke:none"
       d="M 39.789062,11.261719 H 87.765625 V 53.59375 H 39.789062 Z m 0,0"
       id="path2814" />
    <path
       style="fill:#afecda;fill-opacity:1;fill-rule:evenodd;stroke:none"
       d="m 87.761719,53.589844 c 0,3.898437 -10.738281,7.054687 -23.988281,7.054687 -13.246094,0 -23.984376,-3.15625 -23.984376,-7.054687 0,-3.894532 10.738282,-7.054688 23.984376,-7.054688 13.25,0 23.988281,3.160156 23.988281,7.054688"
       id="path2816" />
    <path
       style="fill:#afecda;fill-opacity:1;fill-rule:evenodd;stroke:#000000;stroke-width:2;stroke-linecap:butt;stroke-linejoin:miter;stroke-miterlimit:10;stroke-opacity:1"
       d="m 87.76172,11.2617 c 0,3.8946 -10.73828,7.0548 -23.98828,7.0548 -13.2461,0 -23.98438,-3.1602 -23.98438,-7.0548 0,-3.8984 10.73828,-7.0586 23.98438,-7.0586 13.25,0 23.98828,3.1602 23.98828,7.0586"
       id="path2818" />
    <path
       style="fill:none;stroke:#000000;stroke-width:2;stroke-linecap:butt;stroke-linejoin:miter;stroke-miterlimit:10;stroke-opacity:1"
       d="m 87.76172,11.2617 v 42.3282 c 0,3.8984 -10.73828,7.0546 -23.98828,7.0546 -13.2461,0 -23.98438,-3.1562 -23.98438,-7.0546 V 11.2617"
       id="path2820" />
  </g>
  <rect
     style="opacity:0.988;fill:#fd7e14;fill-opacity:0.761217;stroke:#6dc381;stroke-width:2.75949"
     id="rect231"
     width="165.53198"
     height="57.702942"
     x="164.14867"
     y="223.4554" />
  <text
     xml:space="preserve"
     style="font-style:normal;font-weight:normal;font-size:15.5136px;line-height:1.25;font-family:sans-serif;fill:#000000;fill-opacity:1;stroke:none;stroke-width:0.38784"
     x="195.06252"
     y="257.53629"
     id="text240"><tspan
       sodipodi:role="line"
       id="tspan238"
       x="195.06252"
       y="257.53629"
       style="stroke-width:0.38784">interpolación</tspan></text>
  <text
     xml:space="preserve"
     style="font-style:normal;font-weight:normal;font-size:14.8323px;line-height:1.25;font-family:sans-serif;fill:#000000;fill-opacity:1;stroke:none;stroke-width:0.370807;text-anchor:end;text-align:end;"
     x="-1.2791961"
     y="195.37227"
     id="text237"><tspan
       sodipodi:role="line"
       id="tspan235"
       x="-116.88858"
       y="195.37227"
       style="stroke-width:0.370807;text-anchor:end;text-align:end;">preproceso de</tspan><tspan
       sodipodi:role="line"
       x="-116.88858"
       y="213.91264"
       style="stroke-width:0.370807;text-anchor:end;text-align:end;"
       id="tspan239">datos históricos</tspan></text>
  <text
     xml:space="preserve"
     style="font-style:normal;font-weight:normal;font-size:14.8323px;line-height:1.25;font-family:sans-serif;fill:#000000;fill-opacity:1;stroke:none;stroke-width:0.370807;text-anchor:end;text-align:end;"
     x="8.9103251"
     y="459.26703"
     id="text245"><tspan
       sodipodi:role="line"
       x="-87.296837"
       y="459.26703"
       style="stroke-width:0.370807;text-anchor:end;text-align:end;"
       id="tspan243">simulación</tspan><tspan
       sodipodi:role="line"
       x="-87.296837"
       y="477.8074"
       style="stroke-width:0.370807;text-anchor:end;text-align:end;"
       id="tspan249">experimental</tspan></text>
  <path
     style="fill:none;stroke:#000000;stroke-width:0.75px;stroke-linecap:butt;stroke-linejoin:miter;stroke-opacity:1;marker-end:url(#marker2426)"
     d="m 135.26568,484.99248 35.03959,-47.44292"
     id="path255"
     sodipodi:nodetypes="cc" />
  <path
     style="fill:#ffffff;fill-opacity:1;fill-rule:evenodd;stroke:#000000;stroke-width:1.94163;stroke-linecap:butt;stroke-linejoin:miter;stroke-miterlimit:10;stroke-opacity:1"
     d="m 381.17214,400.46771 h 106.10629 v 66.13182 c -21.22126,-6.91746 -31.83395,-6.91746 -53.05521,0 -21.22126,6.92085 -31.82984,6.92085 -53.05108,0 z"
     id="path272"
     sodipodi:nodetypes="cccccc" />
  <text
     xml:space="preserve"
     style="font-style:normal;font-weight:normal;font-size:11.9308px;line-height:1.25;font-family:sans-serif;text-align:center;text-anchor:middle;fill:#666666;fill-opacity:1;stroke:none;stroke-width:0.298271"
     x="435.0368"
     y="429.16376"
     id="text280"><tspan
       sodipodi:role="line"
       x="435.0368"
       y="429.16376"
       style="text-align:center;text-anchor:middle;fill:#666666;stroke-width:0.298271"
       id="tspan276">raster</tspan><tspan
       sodipodi:role="line"
       x="435.0368"
       y="444.07727"
       style="text-align:center;text-anchor:middle;fill:#666666;stroke-width:0.298271"
       id="tspan290">pronóstico</tspan><tspan
       sodipodi:role="line"
       x="435.0368"
       y="458.99075"
       style="text-align:center;text-anchor:middle;fill:#666666;stroke-width:0.298271"
       id="tspan278" /></text>
  <text
     xml:space="preserve"
     id="text282"
     style="fill:black;fill-opacity:1;line-height:1.25;stroke:none;font-family:sans-serif;font-style:normal;font-weight:normal;font-size:30.00000032px;white-space:pre;shape-inside:url(#rect284);" />
  <path
     style="fill:none;stroke:#000000;stroke-width:0.75px;stroke-linecap:butt;stroke-linejoin:miter;stroke-opacity:1;marker-end:url(#marker2426)"
     d="m 322.72625,419.96242 56.76526,-0.45696"
     id="path292"
     sodipodi:nodetypes="cc" />
</svg>
