"date","month","count","tmp_radio","rh_radio","wsp_radio","promedio"
"01/12/1995","12",130,0.8,1,1,0.933333333333333
"04/11/1995","11",130,0.9,1,1,0.966666666666667
"05/07/1995","07",130,0.9,1,1,0.966666666666667
"05/11/1995","11",130,0.9,1,1,0.966666666666667
"06/08/1995","08",130,0.9,0.9,1,0.933333333333333
"06/11/1995","11",130,0.9,1,1,0.966666666666667
"08/03/1995","03",130,0.669230769230769,0.869230769230769,0.861538461538462,0.8
"08/04/1995","04",130,0.9,0.8,1,0.9
"09/04/1995","04",130,0.9,0.8,1,0.9
"10/01/1995","01",130,0.7,0.9,1,0.866666666666667
"16/09/1995","09",130,0.9,0.9,1,0.933333333333333
"17/05/1995","05",130,0.9,1,1,0.966666666666667
"17/06/1995","06",130,0.8,1,0.984615384615385,0.928205128205128
"17/09/1995","09",130,0.9,0.9,1,0.933333333333333
"17/12/1995","12",130,0.8,1,1,0.933333333333333
"18/06/1995","06",130,0.8,1,0.984615384615385,0.928205128205128
"18/12/1995","12",130,0.8,1,1,0.933333333333333
"19/01/1995","01",130,0.7,0.9,1,0.866666666666667
"20/05/1995","05",130,0.9,1,1,0.966666666666667
"21/12/1995","12",130,0.8,1,1,0.933333333333333
"22/02/1995","02",130,0.676923076923077,0.761538461538461,0.769230769230769,0.735897435897436
"22/04/1995","04",130,0.9,0.8,1,0.9
"22/12/1995","12",130,0.8,1,1,0.933333333333333
"23/05/1995","05",130,0.9,1,1,0.966666666666667
"24/05/1995","05",130,0.9,1,1,0.966666666666667
"25/01/1995","01",130,0.7,0.9,1,0.866666666666667
"27/10/1995","10",130,0.8,0.9,1,0.9
"27/12/1995","12",130,0.8,1,1,0.933333333333333
"29/01/1995","01",130,0.7,0.9,1,0.866666666666667
"29/06/1995","06",130,0.8,1,0.984615384615385,0.928205128205128
"29/08/1995","08",130,0.9,0.9,1,0.933333333333333
"29/12/1995","12",130,0.8,1,1,0.933333333333333
"30/12/1995","12",130,0.8,1,1,0.933333333333333
"31/08/1995","08",130,0.9,0.9,1,0.933333333333333
"31/10/1995","10",130,0.8,0.9,1,0.9
"31/12/1995","12",130,0.8,1,1,0.933333333333333
