"date","month","count","tmp_radio","rh_radio","wsp_radio","promedio"
"01/10/1994","10",130,0.9,0.9,0.9,0.9
"02/06/1994","06",130,0.9,1,0.992307692307692,0.964102564102564
"02/10/1994","10",130,0.9,0.9,0.9,0.9
"03/06/1994","06",130,0.9,1,0.992307692307692,0.964102564102564
"06/05/1994","05",130,0.9,0.992307692307692,0.892307692307692,0.928205128205128
"07/05/1994","05",130,0.9,1,0.884615384615385,0.928205128205128
"10/05/1994","05",130,0.9,1,0.884615384615385,0.928205128205128
"13/02/1994","02",130,0.792307692307692,0.892307692307692,0.976923076923077,0.887179487179487
"13/03/1994","03",130,0.8,0.9,1,0.9
"15/01/1994","01",130,0.7,0.9,1,0.866666666666667
"16/11/1994","11",130,0.9,1,0.984615384615385,0.961538461538462
"17/06/1994","06",130,0.9,1,0.992307692307692,0.964102564102564
"19/08/1994","08",130,0.9,0.9,0.992307692307692,0.930769230769231
"20/01/1994","01",130,0.7,0.9,1,0.866666666666667
"20/03/1994","03",130,0.8,0.9,1,0.9
"20/06/1994","06",130,0.9,0.992307692307692,1,0.964102564102564
"23/07/1994","07",130,0.9,1,1,0.966666666666667
"24/04/1994","04",130,0.9,0.9,0.992307692307692,0.930769230769231
"25/04/1994","04",130,0.9,0.9,0.992307692307692,0.930769230769231
"26/04/1994","04",130,0.892307692307692,0.9,1,0.930769230769231
"29/05/1994","05",130,0.9,1,0.884615384615385,0.928205128205128
"29/12/1994","12",130,0.9,0.9,0.9,0.9
"30/09/1994","09",130,0.9,1,0.992307692307692,0.964102564102564
