"date","month","count","tmp_radio","rh_radio","wsp_radio","promedio"
"01/01/2010","01",208,0.4375,0.4375,0.5,0.458333333333333
"02/01/2010","01",208,0.4375,0.4375,0.5,0.458333333333333
"02/02/2010","02",208,0.4375,0.4375,0.5,0.458333333333333
"03/07/2010","07",208,0.8125,0.8125,0.6875,0.770833333333333
"04/06/2010","06",208,1,1,0.75,0.916666666666667
"04/09/2010","09",208,0.6875,0.625,0.682692307692308,0.665064102564103
"06/01/2010","01",208,0.4375,0.4375,0.5,0.458333333333333
"07/02/2010","02",208,0.4375,0.4375,0.5,0.458333333333333
"07/12/2010","12",208,0.9375,0.875,0.903846153846154,0.905448717948718
"10/01/2010","01",208,0.4375,0.4375,0.5,0.458333333333333
"10/02/2010","02",208,0.4375,0.4375,0.5,0.458333333333333
"12/01/2010","01",208,0.4375,0.4375,0.5,0.458333333333333
"12/06/2010","06",208,1,1,0.75,0.916666666666667
"14/05/2010","05",208,1,1,0.6875,0.895833333333333
"15/01/2010","01",208,0.4375,0.4375,0.5,0.458333333333333
"17/08/2010","08",208,0.75,0.6875,0.682692307692308,0.706730769230769
"18/01/2010","01",208,0.4375,0.4375,0.5,0.458333333333333
"20/02/2010","02",208,0.4375,0.4375,0.5,0.458333333333333
"21/02/2010","02",208,0.4375,0.4375,0.5,0.458333333333333
"21/11/2010","11",208,0.9375,0.9375,0.807692307692308,0.894230769230769
"24/04/2010","04",208,0.9375,0.875,0.625,0.8125
"25/01/2010","01",208,0.4375,0.4375,0.5,0.458333333333333
"26/01/2010","01",208,0.4375,0.4375,0.5,0.458333333333333
"27/04/2010","04",208,0.9375,0.875,0.625,0.8125
"28/01/2010","01",208,0.4375,0.4375,0.5,0.458333333333333
"29/01/2010","01",208,0.4375,0.4375,0.5,0.458333333333333
"30/01/2010","01",208,0.4375,0.4375,0.5,0.458333333333333
"30/10/2010","10",208,0.6875,0.625,0.75,0.6875
"31/03/2010","03",208,0.6875,0.5625,0.620192307692308,0.623397435897436
